C:\Users\ajayverma\eclipse-workspace\RestAssuredDemo\src\test\java\com\qa\rest\test\DemoDELETERequest.java
C:\Users\ajayverma\eclipse-workspace\RestAssuredDemo\src\test\java\com\qa\rest\test\DemoPUTRequest.java
C:\Users\ajayverma\eclipse-workspace\RestAssuredDemo\src\test\java\com\qa\rest\test\DemoPOSTAPIRequest.java
C:\Users\ajayverma\eclipse-workspace\RestAssuredDemo\src\test\java\com\qa\rest\test\DemoGETAPIRequest.java
